{
 "actions": [],
 "creation": "2021-05-10 13:11:25.308772",
 "doctype": "DocType",
 "editable_grid": 1,
 "engine": "InnoDB",
 "field_order": [
  "merchant_id",
  "user_id",
  "pin"
 ],
 "fields": [
  {
   "fieldname": "merchant_id",
   "fieldtype": "Data",
   "in_list_view": 1,
   "label": "Merchant ID",
   "reqd": 1
  },
  {
   "fieldname": "user_id",
   "fieldtype": "Data",
   "in_list_view": 1,
   "label": "User ID",
   "reqd": 1
  },
  {
   "fieldname": "pin",
   "fieldtype": "Data",
   "in_list_view": 1,
   "label": "Pin",
   "reqd": 1
  }
 ],
 "in_create": 1,
 "issingle": 1,
 "links": [],
 "modified": "2021-05-10 13:11:36.633343",
 "modified_by": "Administrator",
 "module": "Converge Payment",
 "name": "Payconverge Settings",
 "owner": "Administrator",
 "permissions": [
  {
   "create": 1,
   "delete": 1,
   "email": 1,
   "print": 1,
   "read": 1,
   "role": "System Manager",
   "share": 1,
   "write": 1
  }
 ],
 "read_only": 1,
 "sort_field": "modified",
 "sort_order": "DESC",
 "track_changes": 1
}